{"results":{"5174f88691edb354a9f46af6e7455bb8":[{"label":"Тест"}]},"pagination":{"total_count":5,"current_page":3,"total_pages":3,"per_page":2,"links":{"first":"https://api.translationexchange.com/v1/applications/767/translations?locale=ru&page=1&per_page=2","previous":"https://api.translationexchange.com/v1/applications/767/translations?locale=ru&page=2&per_page=2","self":"https://api.translationexchange.com/v1/applications/767/translations?locale=ru&page=3&per_page=2","last":"https://api.translationexchange.com/v1/applications/767/translations?locale=ru&page=3&per_page=2"}}}