{"results":{"2c868dcba5cd6e9f06dc77397b5a77b1":[{"label":"{name} дала вам {count} яблоко","context":{"count":{"number":"one"},"viewing_user":{"gender":"female"}}},{"label":"{name} дал мне {count} яблоко","context":{"count":{"number":"one"}}},{"label":"{name} дал тебе {count||яблоко,яблока,яблок}","context":{}}],"8a7c891aa103e45e904a173f218cab9a":[{"label":"Хелло {name}"}]},"pagination":{"total_count":5,"current_page":2,"total_pages":3,"per_page":2,"links":{"first":"https://api.translationexchange.com/v1/applications/767/translations?locale=ru&page=1&per_page=2","previous":"https://api.translationexchange.com/v1/applications/767/translations?locale=ru&page=1&per_page=2","self":"https://api.translationexchange.com/v1/applications/767/translations?locale=ru&page=2&per_page=2","next":"https://api.translationexchange.com/v1/applications/767/translations?locale=ru&page=3&per_page=2","last":"https://api.translationexchange.com/v1/applications/767/translations?locale=ru&page=3&per_page=2"}}}