{"results":{"8ad5a7fe0a12729764e31a1e3ca80059":[{"label":"{actor} любезно дала тебе {count||яблоко, яблока, яблок}","context":{"actor":{"gender":"female"}}},{"label":"{actor} дал тебе всего {count} яблоко, мужик!","context":{"actor":{"gender":"male"},"count":{"number":"one"}}}],"799b44f2ceec7634e4ee1c1122bc1c1a":[]},"pagination":{"total_count":5,"current_page":1,"total_pages":3,"per_page":2,"links":{"first":"https://api.translationexchange.com/v1/applications/767/translations?locale=ru&page=1&per_page=2","self":"https://api.translationexchange.com/v1/applications/767/translations?locale=ru&page=1&per_page=2","next":"https://api.translationexchange.com/v1/applications/767/translations?locale=ru&page=2&per_page=2","last":"https://api.translationexchange.com/v1/applications/767/translations?locale=ru&page=3&per_page=2"}}}