{"results":[{"id":1324559,"locale":"ru","label":"{actor||дал, дала, дало} тебе {count||one: яблоко, few: яблока, many: яблок}","rank":-1,"translator":{"id":1933,"user_id":385,"email":"andrey@toukmanov.ru","display_name":"Andrey Toukmanov","image_url":"https://gravatar.com/avatar/ca338522dba48ed3895724b0e91a3857.png?s=65","rank":100.0,"link":"https://api.translationexchange.com/v1/translators/1933"},"created_at":"2015-02-27 09:18:44","link":"https://api.translationexchange.com/v1/translations/1324559"}],"pagination":{"total_count":3,"current_page":2,"total_pages":2,"per_page":2,"links":{"first":"https://api.translationexchange.com/v1/translation_keys/8ad5a7fe0a12729764e31a1e3ca80059/translations?locale=ru&page=1&per_page=2","previous":"https://api.translationexchange.com/v1/translation_keys/8ad5a7fe0a12729764e31a1e3ca80059/translations?locale=ru&page=1&per_page=2","self":"https://api.translationexchange.com/v1/translation_keys/8ad5a7fe0a12729764e31a1e3ca80059/translations?locale=ru&page=2&per_page=2","last":"https://api.translationexchange.com/v1/translation_keys/8ad5a7fe0a12729764e31a1e3ca80059/translations?locale=ru&page=2&per_page=2"}}}