{"results":[{"id":1324560,"locale":"ru","label":"{actor} любезно дала тебе {count||яблоко, яблока, яблок}","rank":1,"context":{"actor":{"gender":"female"}},"context_description":"{actor} is a female","translator":{"id":1933,"user_id":385,"email":"andrey@toukmanov.ru","display_name":"Andrey Toukmanov","image_url":"https://gravatar.com/avatar/ca338522dba48ed3895724b0e91a3857.png?s=65","rank":100.0,"link":"https://api.translationexchange.com/v1/translators/1933"},"created_at":"2015-02-27 09:20:03","link":"https://api.translationexchange.com/v1/translations/1324560"},{"id":1324558,"locale":"ru","label":"{actor} дал тебе всего {count} яблоко, мужик!","rank":1,"context":{"actor":{"gender":"male"},"count":{"number":"one"}},"context_description":"{actor} is a male; If {count} ends in 1, but not in 11","translator":{"id":1933,"user_id":385,"email":"andrey@toukmanov.ru","display_name":"Andrey Toukmanov","image_url":"https://gravatar.com/avatar/ca338522dba48ed3895724b0e91a3857.png?s=65","rank":100.0,"link":"https://api.translationexchange.com/v1/translators/1933"},"created_at":"2015-02-27 09:15:25","link":"https://api.translationexchange.com/v1/translations/1324558"}],"pagination":{"total_count":3,"current_page":1,"total_pages":2,"per_page":2,"links":{"first":"https://api.translationexchange.com/v1/translation_keys/8ad5a7fe0a12729764e31a1e3ca80059/translations?locale=ru&page=1&per_page=2","self":"https://api.translationexchange.com/v1/translation_keys/8ad5a7fe0a12729764e31a1e3ca80059/translations?locale=ru&page=1&per_page=2","next":"https://api.translationexchange.com/v1/translation_keys/8ad5a7fe0a12729764e31a1e3ca80059/translations?locale=ru&page=2&per_page=2","last":"https://api.translationexchange.com/v1/translation_keys/8ad5a7fe0a12729764e31a1e3ca80059/translations?locale=ru&page=2&per_page=2"}}}